\relax 
\@writefile{toc}{\contentsline {section}{\numberline {1}Abstract}{1}}
\@writefile{toc}{\contentsline {section}{\numberline {2}Introduction}{1}}
\@writefile{toc}{\contentsline {section}{\numberline {3}Grading}{1}}
\@writefile{toc}{\contentsline {subsection}{\numberline {3.1}Positive Grading}{1}}
\@writefile{toc}{\contentsline {subsection}{\numberline {3.2}Negative Grading}{1}}
\@writefile{toc}{\contentsline {section}{\numberline {4}Future Work}{2}}
\@writefile{toc}{\contentsline {section}{\numberline {5}Conclusion}{2}}
\@writefile{toc}{\contentsline {section}{\numberline {6}References}{2}}
\@writefile{toc}{\contentsline {subsection}{\numberline {6.1}Handwriting OCR: handwriting recognition and language modeling with MXNet Gluon by Jonathan Chung}{2}}
\@writefile{toc}{\contentsline {subsection}{\numberline {6.2} AEG with Neural Networks by Ye Tain, Georgia Institute of Technology, Atlanta, GA, US}{2}}
\@writefile{toc}{\contentsline {subsection}{\numberline {6.3} Automated Essay Grading using Machine Learning Algorithm - IOP Science}{2}}
